^D:\Bureau\Ecole\ENSIIE\UQAC\Hiver\IA\tp2\csp-sudoku\csp-sudoku\csp-sudoku.vcxproj
D:\Bureau\Ecole\ENSIIE\UQAC\Hiver\IA\tp2\csp-sudoku\Release\csp-sudoku.ipdb
D:\Bureau\Ecole\ENSIIE\UQAC\Hiver\IA\tp2\csp-sudoku\Release\csp-sudoku.iobj
^D:\Bureau\Ecole\ENSIIE\UQAC\Hiver\IA\tp2\rendu_nacef_labbe_tp2\csp-sudoku\csp-sudoku\csp-sudoku.vcxproj
D:\Bureau\Ecole\ENSIIE\UQAC\Hiver\IA\tp2\rendu_nacef_labbe_tp2\csp-sudoku\Release\csp-sudoku.ipdb
D:\Bureau\Ecole\ENSIIE\UQAC\Hiver\IA\tp2\rendu_nacef_labbe_tp2\csp-sudoku\Release\csp-sudoku.iobj
^D:\Bureau\Ecole\ENSIIE\UQAC\Hiver\IA\tp2\rendu_nacef_labbe_tp2\csp-sudoku\csp-sudoku\csp-sudoku.vcxproj
D:\Bureau\Ecole\ENSIIE\UQAC\Hiver\IA\tp2\rendu_nacef_labbe_tp2\csp-sudoku\Release\csp-sudoku.ipdb
D:\Bureau\Ecole\ENSIIE\UQAC\Hiver\IA\tp2\rendu_nacef_labbe_tp2\csp-sudoku\Release\csp-sudoku.iobj
